%YAML 1.1
%TAG !u! tag:unity3d.com,2011:
--- !u!29 &1
OcclusionCullingSettings:
  m_ObjectHideFlags: 0
  serializedVersion: 2
  m_OcclusionBakeSettings:
    smallestOccluder: 5
    smallestHole: 0.25
    backfaceThreshold: 100
  m_SceneGUID: 00000000000000000000000000000000
  m_OcclusionCullingData: {fileID: 0}
--- !u!104 &2
RenderSettings:
  m_ObjectHideFlags: 0
  serializedVersion: 9
  m_Fog: 0
  m_FogColor: {r: 0.5, g: 0.5, b: 0.5, a: 1}
  m_FogMode: 3
  m_FogDensity: 0.01
  m_LinearFogStart: 0
  m_LinearFogEnd: 300
  m_AmbientSkyColor: {r: 0.212, g: 0.227, b: 0.259, a: 1}
  m_AmbientEquatorColor: {r: 0.114, g: 0.125, b: 0.133, a: 1}
  m_AmbientGroundColor: {r: 0.047, g: 0.043, b: 0.035, a: 1}
  m_AmbientIntensity: 1
  m_AmbientMode: 0
  m_SubtractiveShadowColor: {r: 0.42, g: 0.478, b: 0.627, a: 1}
  m_SkyboxMaterial: {fileID: 10304, guid: 0000000000000000f000000000000000, type: 0}
  m_HaloStrength: 0.5
  m_FlareStrength: 1
  m_FlareFadeSpeed: 3
  m_HaloTexture: {fileID: 0}
  m_SpotCookie: {fileID: 10001, guid: 0000000000000000e000000000000000, type: 0}
  m_DefaultReflectionMode: 0
  m_DefaultReflectionResolution: 128
  m_ReflectionBounces: 1
  m_ReflectionIntensity: 1
  m_CustomReflection: {fileID: 0}
  m_Sun: {fileID: 0}
  m_IndirectSpecularColor: {r: 0, g: 0, b: 0, a: 1}
  m_UseRadianceAmbientProbe: 0
--- !u!157 &4
LightmapSettings:
  m_ObjectHideFlags: 0
  serializedVersion: 12
  m_GIWorkflowMode: 0
  m_GISettings:
    serializedVersion: 2
    m_BounceScale: 1
    m_IndirectOutputScale: 1
    m_AlbedoBoost: 1
    m_EnvironmentLightingMode: 0
    m_EnableBakedLightmaps: 1
    m_EnableRealtimeLightmaps: 1
  m_LightmapEditorSettings:
    serializedVersion: 12
    m_Resolution: 2
    m_BakeResolution: 40
    m_AtlasSize: 1024
    m_AO: 0
    m_AOMaxDistance: 1
    m_CompAOExponent: 0
    m_CompAOExponentDirect: 0
    m_ExtractAmbientOcclusion: 0
    m_Padding: 2
    m_LightmapParameters: {fileID: 0}
    m_LightmapsBakeMode: 1
    m_TextureCompression: 1
    m_FinalGather: 0
    m_FinalGatherFiltering: 1
    m_FinalGatherRayCount: 1024
    m_ReflectionCompression: 2
    m_MixedBakeMode: 1
    m_BakeBackend: 0
    m_PVRSampling: 1
    m_PVRDirectSampleCount: 32
    m_PVRSampleCount: 512
    m_PVRBounces: 2
    m_PVREnvironmentSampleCount: 512
    m_PVREnvironmentReferencePointCount: 2048
    m_PVRFilteringMode: 0
    m_PVRDenoiserTypeDirect: 0
    m_PVRDenoiserTypeIndirect: 0
    m_PVRDenoiserTypeAO: 0
    m_PVRFilterTypeDirect: 0
    m_PVRFilterTypeIndirect: 0
    m_PVRFilterTypeAO: 0
    m_PVREnvironmentMIS: 0
    m_PVRCulling: 1
    m_PVRFilteringGaussRadiusDirect: 1
    m_PVRFilteringGaussRadiusIndirect: 5
    m_PVRFilteringGaussRadiusAO: 2
    m_PVRFilteringAtrousPositionSigmaDirect: 0.5
    m_PVRFilteringAtrousPositionSigmaIndirect: 2
    m_PVRFilteringAtrousPositionSigmaAO: 1
    m_ExportTrainingData: 0
    m_TrainingDataDestination: TrainingData
    m_LightProbeSampleCountMultiplier: 4
  m_LightingDataAsset: {fileID: 0}
  m_LightingSettings: {fileID: 4890085278179872738, guid: 673f614c3e4f4f7458ddc1ae387e0356,
    type: 2}
--- !u!196 &5
NavMeshSettings:
  serializedVersion: 2
  m_ObjectHideFlags: 0
  m_BuildSettings:
    serializedVersion: 2
    agentTypeID: 0
    agentRadius: 0.5
    agentHeight: 2
    agentSlope: 45
    agentClimb: 0.4
    ledgeDropHeight: 0
    maxJumpAcrossDistance: 0
    minRegionArea: 2
    manualCellSize: 0
    cellSize: 0.16666667
    manualTileSize: 0
    tileSize: 256
    accuratePlacement: 0
    maxJobWorkers: 0
    preserveTilesOutsideBounds: 0
    debug:
      m_Flags: 0
  m_NavMeshData: {fileID: 0}
--- !u!1001 &283738426
PrefabInstance:
  m_ObjectHideFlags: 0
  serializedVersion: 2
  m_Modification:
    m_TransformParent: {fileID: 1657671107}
    m_Modifications:
    - target: {fileID: 192894, guid: 035f738ac7ca0934aae975915ce9478f, type: 3}
      propertyPath: m_Name
      value: junk_bridge (1)
      objectReference: {fileID: 0}
    - target: {fileID: 417260, guid: 035f738ac7ca0934aae975915ce9478f, type: 3}
      propertyPath: m_RootOrder
      value: 3
      objectReference: {fileID: 0}
    - target: {fileID: 417260, guid: 035f738ac7ca0934aae975915ce9478f, type: 3}
      propertyPath: m_LocalScale.y
      value: 1
      objectReference: {fileID: 0}
    - target: {fileID: 417260, guid: 035f738ac7ca0934aae975915ce9478f, type: 3}
      propertyPath: m_LocalScale.z
      value: 1
      objectReference: {fileID: 0}
    - target: {fileID: 417260, guid: 035f738ac7ca0934aae975915ce9478f, type: 3}
      propertyPath: m_LocalPosition.x
      value: -6.29
      objectReference: {fileID: 0}
    - target: {fileID: 417260, guid: 035f738ac7ca0934aae975915ce9478f, type: 3}
      propertyPath: m_LocalPosition.y
      value: 0.341
      objectReference: {fileID: 0}
    - target: {fileID: 417260, guid: 035f738ac7ca0934aae975915ce9478f, type: 3}
      propertyPath: m_LocalPosition.z
      value: -10.441
      objectReference: {fileID: 0}
    - target: {fileID: 417260, guid: 035f738ac7ca0934aae975915ce9478f, type: 3}
      propertyPath: m_LocalRotation.w
      value: 0.037188172
      objectReference: {fileID: 0}
    - target: {fileID: 417260, guid: 035f738ac7ca0934aae975915ce9478f, type: 3}
      propertyPath: m_LocalRotation.x
      value: 0.12619945
      objectReference: {fileID: 0}
    - target: {fileID: 417260, guid: 035f738ac7ca0934aae975915ce9478f, type: 3}
      propertyPath: m_LocalRotation.y
      value: -0.9913069
      objectReference: {fileID: 0}
    - target: {fileID: 417260, guid: 035f738ac7ca0934aae975915ce9478f, type: 3}
      propertyPath: m_LocalRotation.z
      value: -0.0011370839
      objectReference: {fileID: 0}
    - target: {fileID: 417260, guid: 035f738ac7ca0934aae975915ce9478f, type: 3}
      propertyPath: m_LocalEulerAnglesHint.x
      value: 0.4086
      objectReference: {fileID: 0}
    - target: {fileID: 417260, guid: 035f738ac7ca0934aae975915ce9478f, type: 3}
      propertyPath: m_LocalEulerAnglesHint.y
      value: -175.75519
      objectReference: {fileID: 0}
    - target: {fileID: 417260, guid: 035f738ac7ca0934aae975915ce9478f, type: 3}
      propertyPath: m_LocalEulerAnglesHint.z
      value: -14.4949
      objectReference: {fileID: 0}
    m_RemovedComponents: []
  m_SourcePrefab: {fileID: 100100000, guid: 035f738ac7ca0934aae975915ce9478f, type: 3}
--- !u!4 &283738427 stripped
Transform:
  m_CorrespondingSourceObject: {fileID: 417260, guid: 035f738ac7ca0934aae975915ce9478f,
    type: 3}
  m_PrefabInstance: {fileID: 283738426}
  m_PrefabAsset: {fileID: 0}
--- !u!1001 &315295612
PrefabInstance:
  m_ObjectHideFlags: 0
  serializedVersion: 2
  m_Modification:
    m_TransformParent: {fileID: 2046082256}
    m_Modifications:
    - target: {fileID: 123268, guid: b56ffad1c0421324d82ef52ef263d4db, type: 3}
      propertyPath: m_Name
      value: pole_wood 2 (1)
      objectReference: {fileID: 0}
    - target: {fileID: 475450, guid: b56ffad1c0421324d82ef52ef263d4db, type: 3}
      propertyPath: m_RootOrder
      value: 4
      objectReference: {fileID: 0}
    - target: {fileID: 475450, guid: b56ffad1c0421324d82ef52ef263d4db, type: 3}
      propertyPath: m_LocalPosition.x
      value: -89.55
      objectReference: {fileID: 0}
    - target: {fileID: 475450, guid: b56ffad1c0421324d82ef52ef263d4db, type: 3}
      propertyPath: m_LocalPosition.y
      value: -3.14
      objectReference: {fileID: 0}
    - target: {fileID: 475450, guid: b56ffad1c0421324d82ef52ef263d4db, type: 3}
      propertyPath: m_LocalPosition.z
      value: -0.87
      objectReference: {fileID: 0}
    - target: {fileID: 475450, guid: b56ffad1c0421324d82ef52ef263d4db, type: 3}
      propertyPath: m_LocalRotation.w
      value: 0.9961542
      objectReference: {fileID: 0}
    - target: {fileID: 475450, guid: b56ffad1c0421324d82ef52ef263d4db, type: 3}
      propertyPath: m_LocalRotation.x
      value: -0.05592803
      objectReference: {fileID: 0}
    - target: {fileID: 475450, guid: b56ffad1c0421324d82ef52ef263d4db, type: 3}
      propertyPath: m_LocalRotation.y
      value: 0.005865031
      objectReference: {fileID: 0}
    - target: {fileID: 475450, guid: b56ffad1c0421324d82ef52ef263d4db, type: 3}
      propertyPath: m_LocalRotation.z
      value: 0.06719121
      objectReference: {fileID: 0}
    - target: {fileID: 475450, guid: b56ffad1c0421324d82ef52ef263d4db, type: 3}
      propertyPath: m_LocalEulerAnglesHint.x
      value: -6.443
      objectReference: {fileID: 0}
    - target: {fileID: 475450, guid: b56ffad1c0421324d82ef52ef263d4db, type: 3}
      propertyPath: m_LocalEulerAnglesHint.y
      value: 0.24039999
      objectReference: {fileID: 0}
    - target: {fileID: 475450, guid: b56ffad1c0421324d82ef52ef263d4db, type: 3}
      propertyPath: m_LocalEulerAnglesHint.z
      value: 7.7040997
      objectReference: {fileID: 0}
    m_RemovedComponents: []
  m_SourcePrefab: {fileID: 100100000, guid: b56ffad1c0421324d82ef52ef263d4db, type: 3}
--- !u!4 &315295613 stripped
Transform:
  m_CorrespondingSourceObject: {fileID: 475450, guid: b56ffad1c0421324d82ef52ef263d4db,
    type: 3}
  m_PrefabInstance: {fileID: 315295612}
  m_PrefabAsset: {fileID: 0}
--- !u!1001 &423303475
PrefabInstance:
  m_ObjectHideFlags: 0
  serializedVersion: 2
  m_Modification:
    m_TransformParent: {fileID: 2046082256}
    m_Modifications:
    - target: {fileID: 415930, guid: 6c43e81dbb4ea18428ee68fedb9a544c, type: 3}
      propertyPath: m_RootOrder
      value: 0
      objectReference: {fileID: 0}
    - target: {fileID: 415930, guid: 6c43e81dbb4ea18428ee68fedb9a544c, type: 3}
      propertyPath: m_LocalPosition.x
      value: -2.5
      objectReference: {fileID: 0}
    - target: {fileID: 415930, guid: 6c43e81dbb4ea18428ee68fedb9a544c, type: 3}
      propertyPath: m_LocalPosition.y
      value: 0
      objectReference: {fileID: 0}
    - target: {fileID: 415930, guid: 6c43e81dbb4ea18428ee68fedb9a544c, type: 3}
      propertyPath: m_LocalPosition.z
      value: 14
      objectReference: {fileID: 0}
    - target: {fileID: 415930, guid: 6c43e81dbb4ea18428ee68fedb9a544c, type: 3}
      propertyPath: m_LocalRotation.w
      value: 0.99809736
      objectReference: {fileID: 0}
    - target: {fileID: 415930, guid: 6c43e81dbb4ea18428ee68fedb9a544c, type: 3}
      propertyPath: m_LocalRotation.x
      value: 0.04357788
      objectReference: {fileID: 0}
    - target: {fileID: 415930, guid: 6c43e81dbb4ea18428ee68fedb9a544c, type: 3}
      propertyPath: m_LocalRotation.y
      value: 0.0019026515
      objectReference: {fileID: 0}
    - target: {fileID: 415930, guid: 6c43e81dbb4ea18428ee68fedb9a544c, type: 3}
      propertyPath: m_LocalRotation.z
      value: -0.04357788
      objectReference: {fileID: 0}
    - target: {fileID: 415930, guid: 6c43e81dbb4ea18428ee68fedb9a544c, type: 3}
      propertyPath: m_LocalEulerAnglesHint.x
      value: 5
      objectReference: {fileID: 0}
    - target: {fileID: 415930, guid: 6c43e81dbb4ea18428ee68fedb9a544c, type: 3}
      propertyPath: m_LocalEulerAnglesHint.z
      value: -5
      objectReference: {fileID: 0}
    m_RemovedComponents: []
  m_SourcePrefab: {fileID: 100100000, guid: 6c43e81dbb4ea18428ee68fedb9a544c, type: 3}
--- !u!4 &423303476 stripped
Transform:
  m_CorrespondingSourceObject: {fileID: 415930, guid: 6c43e81dbb4ea18428ee68fedb9a544c,
    type: 3}
  m_PrefabInstance: {fileID: 423303475}
  m_PrefabAsset: {fileID: 0}
--- !u!1001 &552354081
PrefabInstance:
  m_ObjectHideFlags: 0
  serializedVersion: 2
  m_Modification:
    m_TransformParent: {fileID: 2046082256}
    m_Modifications:
    - target: {fileID: 123268, guid: b56ffad1c0421324d82ef52ef263d4db, type: 3}
      propertyPath: m_Name
      value: pole_wood 2
      objectReference: {fileID: 0}
    - target: {fileID: 475450, guid: b56ffad1c0421324d82ef52ef263d4db, type: 3}
      propertyPath: m_RootOrder
      value: 1
      objectReference: {fileID: 0}
    - target: {fileID: 475450, guid: b56ffad1c0421324d82ef52ef263d4db, type: 3}
      propertyPath: m_LocalPosition.x
      value: -59.75
      objectReference: {fileID: 0}
    - target: {fileID: 475450, guid: b56ffad1c0421324d82ef52ef263d4db, type: 3}
      propertyPath: m_LocalPosition.y
      value: 0
      objectReference: {fileID: 0}
    - target: {fileID: 475450, guid: b56ffad1c0421324d82ef52ef263d4db, type: 3}
      propertyPath: m_LocalPosition.z
      value: -1.5
      objectReference: {fileID: 0}
    - target: {fileID: 475450, guid: b56ffad1c0421324d82ef52ef263d4db, type: 3}
      propertyPath: m_LocalRotation.w
      value: 0.99809736
      objectReference: {fileID: 0}
    - target: {fileID: 475450, guid: b56ffad1c0421324d82ef52ef263d4db, type: 3}
      propertyPath: m_LocalRotation.x
      value: 0.04357788
      objectReference: {fileID: 0}
    - target: {fileID: 475450, guid: b56ffad1c0421324d82ef52ef263d4db, type: 3}
      propertyPath: m_LocalRotation.y
      value: -0.0019026515
      objectReference: {fileID: 0}
    - target: {fileID: 475450, guid: b56ffad1c0421324d82ef52ef263d4db, type: 3}
      propertyPath: m_LocalRotation.z
      value: 0.04357788
      objectReference: {fileID: 0}
    - target: {fileID: 475450, guid: b56ffad1c0421324d82ef52ef263d4db, type: 3}
      propertyPath: m_LocalEulerAnglesHint.x
      value: 5
      objectReference: {fileID: 0}
    - target: {fileID: 475450, guid: b56ffad1c0421324d82ef52ef263d4db, type: 3}
      propertyPath: m_LocalEulerAnglesHint.z
      value: 5
      objectReference: {fileID: 0}
    m_RemovedComponents: []
  m_SourcePrefab: {fileID: 100100000, guid: b56ffad1c0421324d82ef52ef263d4db, type: 3}
--- !u!4 &552354082 stripped
Transform:
  m_CorrespondingSourceObject: {fileID: 475450, guid: b56ffad1c0421324d82ef52ef263d4db,
    type: 3}
  m_PrefabInstance: {fileID: 552354081}
  m_PrefabAsset: {fileID: 0}
--- !u!1001 &580859029
PrefabInstance:
  m_ObjectHideFlags: 0
  serializedVersion: 2
  m_Modification:
    m_TransformParent: {fileID: 2046082256}
    m_Modifications:
    - target: {fileID: 495318, guid: 7476bea84d0c5ee46babced461b99665, type: 3}
      propertyPath: m_RootOrder
      value: 3
      objectReference: {fileID: 0}
    - target: {fileID: 495318, guid: 7476bea84d0c5ee46babced461b99665, type: 3}
      propertyPath: m_LocalPosition.x
      value: 0
      objectReference: {fileID: 0}
    - target: {fileID: 495318, guid: 7476bea84d0c5ee46babced461b99665, type: 3}
      propertyPath: m_LocalPosition.y
      value: 0.738
      objectReference: {fileID: 0}
    - target: {fileID: 495318, guid: 7476bea84d0c5ee46babced461b99665, type: 3}
      propertyPath: m_LocalPosition.z
      value: 4.841
      objectReference: {fileID: 0}
    - target: {fileID: 495318, guid: 7476bea84d0c5ee46babced461b99665, type: 3}
      propertyPath: m_LocalRotation.w
      value: 0.7071067
      objectReference: {fileID: 0}
    - target: {fileID: 495318, guid: 7476bea84d0c5ee46babced461b99665, type: 3}
      propertyPath: m_LocalRotation.x
      value: 0
      objectReference: {fileID: 0}
    - target: {fileID: 495318, guid: 7476bea84d0c5ee46babced461b99665, type: 3}
      propertyPath: m_LocalRotation.y
      value: 0.7071068
      objectReference: {fileID: 0}
    - target: {fileID: 495318, guid: 7476bea84d0c5ee46babced461b99665, type: 3}
      propertyPath: m_LocalRotation.z
      value: 0
      objectReference: {fileID: 0}
    - target: {fileID: 495318, guid: 7476bea84d0c5ee46babced461b99665, type: 3}
      propertyPath: m_LocalEulerAnglesHint.y
      value: 90
      objectReference: {fileID: 0}
    m_RemovedComponents: []
  m_SourcePrefab: {fileID: 100100000, guid: 7476bea84d0c5ee46babced461b99665, type: 3}
--- !u!4 &580859030 stripped
Transform:
  m_CorrespondingSourceObject: {fileID: 495318, guid: 7476bea84d0c5ee46babced461b99665,
    type: 3}
  m_PrefabInstance: {fileID: 580859029}
  m_PrefabAsset: {fileID: 0}
--- !u!1 &583106336
GameObject:
  m_ObjectHideFlags: 0
  m_CorrespondingSourceObject: {fileID: 0}
  m_PrefabInstance: {fileID: 0}
  m_PrefabAsset: {fileID: 0}
  serializedVersion: 6
  m_Component:
  - component: {fileID: 583106340}
  - component: {fileID: 583106339}
  - component: {fileID: 583106338}
  - component: {fileID: 583106337}
  m_Layer: 0
  m_Name: Cube
  m_TagString: Untagged
  m_Icon: {fileID: 0}
  m_NavMeshLayer: 0
  m_StaticEditorFlags: 0
  m_IsActive: 1
--- !u!23 &583106337
MeshRenderer:
  m_ObjectHideFlags: 0
  m_CorrespondingSourceObject: {fileID: 0}
  m_PrefabInstance: {fileID: 0}
  m_PrefabAsset: {fileID: 0}
  m_GameObject: {fileID: 583106336}
  m_Enabled: 1
  m_CastShadows: 1
  m_ReceiveShadows: 1
  m_DynamicOccludee: 1
  m_MotionVectors: 1
  m_LightProbeUsage: 1
  m_ReflectionProbeUsage: 1
  m_RayTracingMode: 2
  m_RayTraceProcedural: 0
  m_RenderingLayerMask: 1
  m_RendererPriority: 0
  m_Materials:
  - {fileID: 2100000, guid: c6f1ef0ae07e69b4c94000dfdb7d79a2, type: 2}
  m_StaticBatchInfo:
    firstSubMesh: 0
    subMeshCount: 0
  m_StaticBatchRoot: {fileID: 0}
  m_ProbeAnchor: {fileID: 0}
  m_LightProbeVolumeOverride: {fileID: 0}
  m_ScaleInLightmap: 1
  m_ReceiveGI: 1
  m_PreserveUVs: 1
  m_IgnoreNormalsForChartDetection: 0
  m_ImportantGI: 0
  m_StitchLightmapSeams: 1
  m_SelectedEditorRenderState: 3
  m_MinimumChartSize: 4
  m_AutoUVMaxDistance: 0.5
  m_AutoUVMaxAngle: 89
  m_LightmapParameters: {fileID: 0}
  m_SortingLayerID: 0
  m_SortingLayer: 0
  m_SortingOrder: 0
  m_AdditionalVertexStreams: {fileID: 0}
--- !u!65 &583106338
BoxCollider:
  m_ObjectHideFlags: 0
  m_CorrespondingSourceObject: {fileID: 0}
  m_PrefabInstance: {fileID: 0}
  m_PrefabAsset: {fileID: 0}
  m_GameObject: {fileID: 583106336}
  m_Material: {fileID: 0}
  m_IsTrigger: 0
  m_Enabled: 1
  serializedVersion: 2
  m_Size: {x: 1, y: 1, z: 1}
  m_Center: {x: 0, y: 0, z: 0}
--- !u!33 &583106339
MeshFilter:
  m_ObjectHideFlags: 0
  m_CorrespondingSourceObject: {fileID: 0}
  m_PrefabInstance: {fileID: 0}
  m_PrefabAsset: {fileID: 0}
  m_GameObject: {fileID: 583106336}
  m_Mesh: {fileID: 10202, guid: 0000000000000000e000000000000000, type: 0}
--- !u!4 &583106340
Transform:
  m_ObjectHideFlags: 0
  m_CorrespondingSourceObject: {fileID: 0}
  m_PrefabInstance: {fileID: 0}
  m_PrefabAsset: {fileID: 0}
  m_GameObject: {fileID: 583106336}
  m_LocalRotation: {x: 0, y: 0, z: 0, w: 1}
  m_LocalPosition: {x: 0, y: -0.25, z: 0}
  m_LocalScale: {x: 300, y: 0.5, z: 300}
  m_Children: []
  m_Father: {fileID: 0}
  m_RootOrder: 5
  m_LocalEulerAnglesHint: {x: 0, y: 0, z: 0}
--- !u!1001 &629293546
PrefabInstance:
  m_ObjectHideFlags: 0
  serializedVersion: 2
  m_Modification:
    m_TransformParent: {fileID: 2046082256}
    m_Modifications:
    - target: {fileID: 123268, guid: b56ffad1c0421324d82ef52ef263d4db, type: 3}
      propertyPath: m_Name
      value: pole_wood 1
      objectReference: {fileID: 0}
    - target: {fileID: 468864, guid: b56ffad1c0421324d82ef52ef263d4db, type: 3}
      propertyPath: m_LocalPosition.x
      value: -4.75
      objectReference: {fileID: 0}
    - target: {fileID: 475450, guid: b56ffad1c0421324d82ef52ef263d4db, type: 3}
      propertyPath: m_RootOrder
      value: 2
      objectReference: {fileID: 0}
    - target: {fileID: 475450, guid: b56ffad1c0421324d82ef52ef263d4db, type: 3}
      propertyPath: m_LocalScale.z
      value: 1
      objectReference: {fileID: 0}
    - target: {fileID: 475450, guid: b56ffad1c0421324d82ef52ef263d4db, type: 3}
      propertyPath: m_LocalPosition.x
      value: 0
      objectReference: {fileID: 0}
    - target: {fileID: 475450, guid: b56ffad1c0421324d82ef52ef263d4db, type: 3}
      propertyPath: m_LocalPosition.y
      value: 0
      objectReference: {fileID: 0}
    - target: {fileID: 475450, guid: b56ffad1c0421324d82ef52ef263d4db, type: 3}
      propertyPath: m_LocalPosition.z
      value: -1.5
      objectReference: {fileID: 0}
    - target: {fileID: 475450, guid: b56ffad1c0421324d82ef52ef263d4db, type: 3}
      propertyPath: m_LocalRotation.w
      value: 0.99904823
      objectReference: {fileID: 0}
    - target: {fileID: 475450, guid: b56ffad1c0421324d82ef52ef263d4db, type: 3}
      propertyPath: m_LocalRotation.x
      value: -0.043619126
      objectReference: {fileID: 0}
    - target: {fileID: 475450, guid: b56ffad1c0421324d82ef52ef263d4db, type: 3}
      propertyPath: m_LocalRotation.y
      value: 0
      objectReference: {fileID: 0}
    - target: {fileID: 475450, guid: b56ffad1c0421324d82ef52ef263d4db, type: 3}
      propertyPath: m_LocalRotation.z
      value: 0
      objectReference: {fileID: 0}
    - target: {fileID: 475450, guid: b56ffad1c0421324d82ef52ef263d4db, type: 3}
      propertyPath: m_LocalEulerAnglesHint.x
      value: -5
      objectReference: {fileID: 0}
    m_RemovedComponents: []
  m_SourcePrefab: {fileID: 100100000, guid: b56ffad1c0421324d82ef52ef263d4db, type: 3}
--- !u!4 &629293547 stripped
Transform:
  m_CorrespondingSourceObject: {fileID: 475450, guid: b56ffad1c0421324d82ef52ef263d4db,
    type: 3}
  m_PrefabInstance: {fileID: 629293546}
  m_PrefabAsset: {fileID: 0}
--- !u!1 &653249755
GameObject:
  m_ObjectHideFlags: 0
  m_CorrespondingSourceObject: {fileID: 0}
  m_PrefabInstance: {fileID: 0}
  m_PrefabAsset: {fileID: 0}
  serializedVersion: 6
  m_Component:
  - component: {fileID: 653249756}
  m_Layer: 0
  m_Name: Buildings
  m_TagString: Untagged
  m_Icon: {fileID: 0}
  m_NavMeshLayer: 0
  m_StaticEditorFlags: 0
  m_IsActive: 1
--- !u!4 &653249756
Transform:
  m_ObjectHideFlags: 0
  m_CorrespondingSourceObject: {fileID: 0}
  m_PrefabInstance: {fileID: 0}
  m_PrefabAsset: {fileID: 0}
  m_GameObject: {fileID: 653249755}
  m_LocalRotation: {x: 0, y: 0, z: 0, w: 1}
  m_LocalPosition: {x: 0, y: 0, z: 0}
  m_LocalScale: {x: 1, y: 1, z: 1}
  m_Children:
  - {fileID: 1965397383}
  - {fileID: 770113895}
  - {fileID: 972006078}
  - {fileID: 1161115106}
  - {fileID: 1651659710}
  m_Father: {fileID: 0}
  m_RootOrder: 3
  m_LocalEulerAnglesHint: {x: 0, y: 0, z: 0}
--- !u!1 &726649275
GameObject:
  m_ObjectHideFlags: 0
  m_CorrespondingSourceObject: {fileID: 0}
  m_PrefabInstance: {fileID: 0}
  m_PrefabAsset: {fileID: 0}
  serializedVersion: 6
  m_Component:
  - component: {fileID: 726649280}
  - component: {fileID: 726649279}
  - component: {fileID: 726649277}
  - component: {fileID: 726649276}
  m_Layer: 0
  m_Name: Main Camera
  m_TagString: MainCamera
  m_Icon: {fileID: 0}
  m_NavMeshLayer: 0
  m_StaticEditorFlags: 0
  m_IsActive: 1
--- !u!81 &726649276
AudioListener:
  m_ObjectHideFlags: 0
  m_CorrespondingSourceObject: {fileID: 0}
  m_PrefabInstance: {fileID: 0}
  m_PrefabAsset: {fileID: 0}
  m_GameObject: {fileID: 726649275}
  m_Enabled: 1
--- !u!124 &726649277
Behaviour:
  m_ObjectHideFlags: 0
  m_CorrespondingSourceObject: {fileID: 0}
  m_PrefabInstance: {fileID: 0}
  m_PrefabAsset: {fileID: 0}
  m_GameObject: {fileID: 726649275}
  m_Enabled: 1
--- !u!20 &726649279
Camera:
  m_ObjectHideFlags: 0
  m_CorrespondingSourceObject: {fileID: 0}
  m_PrefabInstance: {fileID: 0}
  m_PrefabAsset: {fileID: 0}
  m_GameObject: {fileID: 726649275}
  m_Enabled: 1
  serializedVersion: 2
  m_ClearFlags: 1
  m_BackGroundColor: {r: 0.19215687, g: 0.3019608, b: 0.4745098, a: 0.019607844}
  m_projectionMatrixMode: 1
  m_GateFitMode: 2
  m_FOVAxisMode: 0
  m_SensorSize: {x: 36, y: 24}
  m_LensShift: {x: 0, y: 0}
  m_FocalLength: 50
  m_NormalizedViewPortRect:
    serializedVersion: 2
    x: 0
    y: 0
    width: 1
    height: 1
  near clip plane: 0.3
  far clip plane: 1000
  field of view: 60
  orthographic: 0
  orthographic size: 5
  m_Depth: -1
  m_CullingMask:
    serializedVersion: 2
    m_Bits: 4294967295
  m_RenderingPath: -1
  m_TargetTexture: {fileID: 0}
  m_TargetDisplay: 0
  m_TargetEye: 3
  m_HDR: 0
  m_AllowMSAA: 1
  m_AllowDynamicResolution: 0
  m_ForceIntoRT: 0
  m_OcclusionCulling: 1
  m_StereoConvergence: 10
  m_StereoSeparation: 0.022
--- !u!4 &726649280
Transform:
  m_ObjectHideFlags: 0
  m_CorrespondingSourceObject: {fileID: 0}
  m_PrefabInstance: {fileID: 0}
  m_PrefabAsset: {fileID: 0}
  m_GameObject: {fileID: 726649275}
  m_LocalRotation: {x: 0, y: -0.7071068, z: 0, w: 0.7071067}
  m_LocalPosition: {x: 23, y: 5, z: -1.25}
  m_LocalScale: {x: 1, y: 1, z: 1}
  m_Children: []
  m_Father: {fileID: 0}
  m_RootOrder: 0
  m_LocalEulerAnglesHint: {x: 0, y: -90, z: 0}
--- !u!1001 &770113894
PrefabInstance:
  m_ObjectHideFlags: 0
  serializedVersion: 2
  m_Modification:
    m_TransformParent: {fileID: 653249756}
    m_Modifications:
    - target: {fileID: 432084, guid: 0c33235d8e4ec124b8f0e17c87b30ee1, type: 3}
      propertyPath: m_RootOrder
      value: 1
      objectReference: {fileID: 0}
    - target: {fileID: 432084, guid: 0c33235d8e4ec124b8f0e17c87b30ee1, type: 3}
      propertyPath: m_LocalPosition.x
      value: 0
      objectReference: {fileID: 0}
    - target: {fileID: 432084, guid: 0c33235d8e4ec124b8f0e17c87b30ee1, type: 3}
      propertyPath: m_LocalPosition.y
      value: 0
      objectReference: {fileID: 0}
    - target: {fileID: 432084, guid: 0c33235d8e4ec124b8f0e17c87b30ee1, type: 3}
      propertyPath: m_LocalPosition.z
      value: 6.25
      objectReference: {fileID: 0}
    - target: {fileID: 432084, guid: 0c33235d8e4ec124b8f0e17c87b30ee1, type: 3}
      propertyPath: m_LocalRotation.w
      value: 1
      objectReference: {fileID: 0}
    - target: {fileID: 432084, guid: 0c33235d8e4ec124b8f0e17c87b30ee1, type: 3}
      propertyPath: m_LocalRotation.x
      value: 0
      objectReference: {fileID: 0}
    - target: {fileID: 432084, guid: 0c33235d8e4ec124b8f0e17c87b30ee1, type: 3}
      propertyPath: m_LocalRotation.y
      value: 0
      objectReference: {fileID: 0}
    - target: {fileID: 432084, guid: 0c33235d8e4ec124b8f0e17c87b30ee1, type: 3}
      propertyPath: m_LocalRotation.z
      value: 0
      objectReference: {fileID: 0}
    m_RemovedComponents: []
  m_SourcePrefab: {fileID: 100100000, guid: 0c33235d8e4ec124b8f0e17c87b30ee1, type: 3}
--- !u!4 &770113895 stripped
Transform:
  m_CorrespondingSourceObject: {fileID: 432084, guid: 0c33235d8e4ec124b8f0e17c87b30ee1,
    type: 3}
  m_PrefabInstance: {fileID: 770113894}
  m_PrefabAsset: {fileID: 0}
--- !u!1001 &885775588
PrefabInstance:
  m_ObjectHideFlags: 0
  serializedVersion: 2
  m_Modification:
    m_TransformParent: {fileID: 2046082256}
    m_Modifications:
    - target: {fileID: 491830, guid: 32cfb3e46f2c5c9499b88966b82caf77, type: 3}
      propertyPath: m_RootOrder
      value: 5
      objectReference: {fileID: 0}
    - target: {fileID: 491830, guid: 32cfb3e46f2c5c9499b88966b82caf77, type: 3}
      propertyPath: m_LocalPosition.x
      value: -0.148
      objectReference: {fileID: 0}
    - target: {fileID: 491830, guid: 32cfb3e46f2c5c9499b88966b82caf77, type: 3}
      propertyPath: m_LocalPosition.y
      value: 0.726
      objectReference: {fileID: 0}
    - target: {fileID: 491830, guid: 32cfb3e46f2c5c9499b88966b82caf77, type: 3}
      propertyPath: m_LocalPosition.z
      value: -10
      objectReference: {fileID: 0}
    - target: {fileID: 491830, guid: 32cfb3e46f2c5c9499b88966b82caf77, type: 3}
      propertyPath: m_LocalRotation.w
      value: 0.7071067
      objectReference: {fileID: 0}
    - target: {fileID: 491830, guid: 32cfb3e46f2c5c9499b88966b82caf77, type: 3}
      propertyPath: m_LocalRotation.x
      value: 0
      objectReference: {fileID: 0}
    - target: {fileID: 491830, guid: 32cfb3e46f2c5c9499b88966b82caf77, type: 3}
      propertyPath: m_LocalRotation.y
      value: 0.7071068
      objectReference: {fileID: 0}
    - target: {fileID: 491830, guid: 32cfb3e46f2c5c9499b88966b82caf77, type: 3}
      propertyPath: m_LocalRotation.z
      value: 0
      objectReference: {fileID: 0}
    - target: {fileID: 491830, guid: 32cfb3e46f2c5c9499b88966b82caf77, type: 3}
      propertyPath: m_LocalEulerAnglesHint.y
      value: 90
      objectReference: {fileID: 0}
    m_RemovedComponents: []
  m_SourcePrefab: {fileID: 100100000, guid: 32cfb3e46f2c5c9499b88966b82caf77, type: 3}
--- !u!4 &885775589 stripped
Transform:
  m_CorrespondingSourceObject: {fileID: 491830, guid: 32cfb3e46f2c5c9499b88966b82caf77,
    type: 3}
  m_PrefabInstance: {fileID: 885775588}
  m_PrefabAsset: {fileID: 0}
--- !u!1001 &972006077
PrefabInstance:
  m_ObjectHideFlags: 0
  serializedVersion: 2
  m_Modification:
    m_TransformParent: {fileID: 653249756}
    m_Modifications:
    - target: {fileID: 401438, guid: f07c5dd2e7eea7f428902de53a5fe107, type: 3}
      propertyPath: m_RootOrder
      value: 2
      objectReference: {fileID: 0}
    - target: {fileID: 401438, guid: f07c5dd2e7eea7f428902de53a5fe107, type: 3}
      propertyPath: m_LocalPosition.x
      value: 0
      objectReference: {fileID: 0}
    - target: {fileID: 401438, guid: f07c5dd2e7eea7f428902de53a5fe107, type: 3}
      propertyPath: m_LocalPosition.y
      value: 0
      objectReference: {fileID: 0}
    - target: {fileID: 401438, guid: f07c5dd2e7eea7f428902de53a5fe107, type: 3}
      propertyPath: m_LocalPosition.z
      value: 6.25
      objectReference: {fileID: 0}
    - target: {fileID: 401438, guid: f07c5dd2e7eea7f428902de53a5fe107, type: 3}
      propertyPath: m_LocalRotation.w
      value: 1
      objectReference: {fileID: 0}
    - target: {fileID: 401438, guid: f07c5dd2e7eea7f428902de53a5fe107, type: 3}
      propertyPath: m_LocalRotation.x
      value: 0
      objectReference: {fileID: 0}
    - target: {fileID: 401438, guid: f07c5dd2e7eea7f428902de53a5fe107, type: 3}
      propertyPath: m_LocalRotation.y
      value: 0
      objectReference: {fileID: 0}
    - target: {fileID: 401438, guid: f07c5dd2e7eea7f428902de53a5fe107, type: 3}
      propertyPath: m_LocalRotation.z
      value: 0
      objectReference: {fileID: 0}
    m_RemovedComponents: []
  m_SourcePrefab: {fileID: 100100000, guid: f07c5dd2e7eea7f428902de53a5fe107, type: 3}
--- !u!4 &972006078 stripped
Transform:
  m_CorrespondingSourceObject: {fileID: 401438, guid: f07c5dd2e7eea7f428902de53a5fe107,
    type: 3}
  m_PrefabInstance: {fileID: 972006077}
  m_PrefabAsset: {fileID: 0}
--- !u!1001 &1161115105
PrefabInstance:
  m_ObjectHideFlags: 0
  serializedVersion: 2
  m_Modification:
    m_TransformParent: {fileID: 653249756}
    m_Modifications:
    - target: {fileID: 465526, guid: b975c7a470622c540b3e705556ab595e, type: 3}
      propertyPath: m_RootOrder
      value: 3
      objectReference: {fileID: 0}
    - target: {fileID: 465526, guid: b975c7a470622c540b3e705556ab595e, type: 3}
      propertyPath: m_LocalPosition.x
      value: -6.25
      objectReference: {fileID: 0}
    - target: {fileID: 465526, guid: b975c7a470622c540b3e705556ab595e, type: 3}
      propertyPath: m_LocalPosition.y
      value: 0
      objectReference: {fileID: 0}
    - target: {fileID: 465526, guid: b975c7a470622c540b3e705556ab595e, type: 3}
      propertyPath: m_LocalPosition.z
      value: 4.5
      objectReference: {fileID: 0}
    - target: {fileID: 465526, guid: b975c7a470622c540b3e705556ab595e, type: 3}
      propertyPath: m_LocalRotation.w
      value: 1
      objectReference: {fileID: 0}
    - target: {fileID: 465526, guid: b975c7a470622c540b3e705556ab595e, type: 3}
      propertyPath: m_LocalRotation.x
      value: 0
      objectReference: {fileID: 0}
    - target: {fileID: 465526, guid: b975c7a470622c540b3e705556ab595e, type: 3}
      propertyPath: m_LocalRotation.y
      value: 0
      objectReference: {fileID: 0}
    - target: {fileID: 465526, guid: b975c7a470622c540b3e705556ab595e, type: 3}
      propertyPath: m_LocalRotation.z
      value: 0
      objectReference: {fileID: 0}
    m_RemovedComponents: []
  m_SourcePrefab: {fileID: 100100000, guid: b975c7a470622c540b3e705556ab595e, type: 3}
--- !u!4 &1161115106 stripped
Transform:
  m_CorrespondingSourceObject: {fileID: 465526, guid: b975c7a470622c540b3e705556ab595e,
    type: 3}
  m_PrefabInstance: {fileID: 1161115105}
  m_PrefabAsset: {fileID: 0}
--- !u!1001 &1381984314
PrefabInstance:
  m_ObjectHideFlags: 0
  serializedVersion: 2
  m_Modification:
    m_TransformParent: {fileID: 1657671107}
    m_Modifications:
    - target: {fileID: 470920, guid: a22c9e7ef50fc764da43060141ad70cb, type: 3}
      propertyPath: m_RootOrder
      value: 2
      objectReference: {fileID: 0}
    - target: {fileID: 470920, guid: a22c9e7ef50fc764da43060141ad70cb, type: 3}
      propertyPath: m_LocalPosition.x
      value: 4.2
      objectReference: {fileID: 0}
    - target: {fileID: 470920, guid: a22c9e7ef50fc764da43060141ad70cb, type: 3}
      propertyPath: m_LocalPosition.y
      value: 0.683
      objectReference: {fileID: 0}
    - target: {fileID: 470920, guid: a22c9e7ef50fc764da43060141ad70cb, type: 3}
      propertyPath: m_LocalPosition.z
      value: -11.13
      objectReference: {fileID: 0}
    - target: {fileID: 470920, guid: a22c9e7ef50fc764da43060141ad70cb, type: 3}
      propertyPath: m_LocalRotation.w
      value: 0.3600405
      objectReference: {fileID: 0}
    - target: {fileID: 470920, guid: a22c9e7ef50fc764da43060141ad70cb, type: 3}
      propertyPath: m_LocalRotation.x
      value: -0.11567488
      objectReference: {fileID: 0}
    - target: {fileID: 470920, guid: a22c9e7ef50fc764da43060141ad70cb, type: 3}
      propertyPath: m_LocalRotation.y
      value: -0.9246428
      objectReference: {fileID: 0}
    - target: {fileID: 470920, guid: a22c9e7ef50fc764da43060141ad70cb, type: 3}
      propertyPath: m_LocalRotation.z
      value: 0.045010336
      objectReference: {fileID: 0}
    - target: {fileID: 470920, guid: a22c9e7ef50fc764da43060141ad70cb, type: 3}
      propertyPath: m_LocalEulerAnglesHint.x
      value: -0.0033
      objectReference: {fileID: 0}
    - target: {fileID: 470920, guid: a22c9e7ef50fc764da43060141ad70cb, type: 3}
      propertyPath: m_LocalEulerAnglesHint.y
      value: -137.4502
      objectReference: {fileID: 0}
    - target: {fileID: 470920, guid: a22c9e7ef50fc764da43060141ad70cb, type: 3}
      propertyPath: m_LocalEulerAnglesHint.z
      value: 14.2603
      objectReference: {fileID: 0}
    m_RemovedComponents: []
  m_SourcePrefab: {fileID: 100100000, guid: a22c9e7ef50fc764da43060141ad70cb, type: 3}
--- !u!4 &1381984315 stripped
Transform:
  m_CorrespondingSourceObject: {fileID: 470920, guid: a22c9e7ef50fc764da43060141ad70cb,
    type: 3}
  m_PrefabInstance: {fileID: 1381984314}
  m_PrefabAsset: {fileID: 0}
--- !u!1001 &1458774903
PrefabInstance:
  m_ObjectHideFlags: 0
  serializedVersion: 2
  m_Modification:
    m_TransformParent: {fileID: 1657671107}
    m_Modifications:
    - target: {fileID: 401402, guid: 0632adc36f3af70468bf597efa877832, type: 3}
      propertyPath: m_RootOrder
      value: 1
      objectReference: {fileID: 0}
    - target: {fileID: 401402, guid: 0632adc36f3af70468bf597efa877832, type: 3}
      propertyPath: m_LocalPosition.x
      value: -3.42
      objectReference: {fileID: 0}
    - target: {fileID: 401402, guid: 0632adc36f3af70468bf597efa877832, type: 3}
      propertyPath: m_LocalPosition.y
      value: 0.7401
      objectReference: {fileID: 0}
    - target: {fileID: 401402, guid: 0632adc36f3af70468bf597efa877832, type: 3}
      propertyPath: m_LocalPosition.z
      value: -6.13
      objectReference: {fileID: 0}
    - target: {fileID: 401402, guid: 0632adc36f3af70468bf597efa877832, type: 3}
      propertyPath: m_LocalRotation.w
      value: 0.6644551
      objectReference: {fileID: 0}
    - target: {fileID: 401402, guid: 0632adc36f3af70468bf597efa877832, type: 3}
      propertyPath: m_LocalRotation.x
      value: -0.24186638
      objectReference: {fileID: 0}
    - target: {fileID: 401402, guid: 0632adc36f3af70468bf597efa877832, type: 3}
      propertyPath: m_LocalRotation.y
      value: 0.24186642
      objectReference: {fileID: 0}
    - target: {fileID: 401402, guid: 0632adc36f3af70468bf597efa877832, type: 3}
      propertyPath: m_LocalRotation.z
      value: -0.66445524
      objectReference: {fileID: 0}
    - target: {fileID: 401402, guid: 0632adc36f3af70468bf597efa877832, type: 3}
      propertyPath: m_LocalEulerAnglesHint.y
      value: 40.0037
      objectReference: {fileID: 0}
    - target: {fileID: 401402, guid: 0632adc36f3af70468bf597efa877832, type: 3}
      propertyPath: m_LocalEulerAnglesHint.z
      value: -90
      objectReference: {fileID: 0}
    m_RemovedComponents: []
  m_SourcePrefab: {fileID: 100100000, guid: 0632adc36f3af70468bf597efa877832, type: 3}
--- !u!4 &1458774904 stripped
Transform:
  m_CorrespondingSourceObject: {fileID: 401402, guid: 0632adc36f3af70468bf597efa877832,
    type: 3}
  m_PrefabInstance: {fileID: 1458774903}
  m_PrefabAsset: {fileID: 0}
--- !u!1001 &1651659709
PrefabInstance:
  m_ObjectHideFlags: 0
  serializedVersion: 2
  m_Modification:
    m_TransformParent: {fileID: 653249756}
    m_Modifications:
    - target: {fileID: 172090, guid: 92639011d2d4c504e80f68a4f024006f, type: 3}
      propertyPath: m_Name
      value: house_stairs (1)
      objectReference: {fileID: 0}
    - target: {fileID: 428892, guid: 92639011d2d4c504e80f68a4f024006f, type: 3}
      propertyPath: m_RootOrder
      value: 4
      objectReference: {fileID: 0}
    - target: {fileID: 428892, guid: 92639011d2d4c504e80f68a4f024006f, type: 3}
      propertyPath: m_LocalPosition.x
      value: -5.5
      objectReference: {fileID: 0}
    - target: {fileID: 428892, guid: 92639011d2d4c504e80f68a4f024006f, type: 3}
      propertyPath: m_LocalPosition.y
      value: 0
      objectReference: {fileID: 0}
    - target: {fileID: 428892, guid: 92639011d2d4c504e80f68a4f024006f, type: 3}
      propertyPath: m_LocalPosition.z
      value: 4.5
      objectReference: {fileID: 0}
    - target: {fileID: 428892, guid: 92639011d2d4c504e80f68a4f024006f, type: 3}
      propertyPath: m_LocalRotation.w
      value: -0.00000016292068
      objectReference: {fileID: 0}
    - target: {fileID: 428892, guid: 92639011d2d4c504e80f68a4f024006f, type: 3}
      propertyPath: m_LocalRotation.x
      value: 0
      objectReference: {fileID: 0}
    - target: {fileID: 428892, guid: 92639011d2d4c504e80f68a4f024006f, type: 3}
      propertyPath: m_LocalRotation.y
      value: 1
      objectReference: {fileID: 0}
    - target: {fileID: 428892, guid: 92639011d2d4c504e80f68a4f024006f, type: 3}
      propertyPath: m_LocalRotation.z
      value: 0
      objectReference: {fileID: 0}
    - target: {fileID: 428892, guid: 92639011d2d4c504e80f68a4f024006f, type: 3}
      propertyPath: m_LocalEulerAnglesHint.y
      value: 180
      objectReference: {fileID: 0}
    m_RemovedComponents: []
  m_SourcePrefab: {fileID: 100100000, guid: 92639011d2d4c504e80f68a4f024006f, type: 3}
--- !u!4 &1651659710 stripped
Transform:
  m_CorrespondingSourceObject: {fileID: 428892, guid: 92639011d2d4c504e80f68a4f024006f,
    type: 3}
  m_PrefabInstance: {fileID: 1651659709}
  m_PrefabAsset: {fileID: 0}
--- !u!1 &1657671106
GameObject:
  m_ObjectHideFlags: 0
  m_CorrespondingSourceObject: {fileID: 0}
  m_PrefabInstance: {fileID: 0}
  m_PrefabAsset: {fileID: 0}
  serializedVersion: 6
  m_Component:
  - component: {fileID: 1657671107}
  m_Layer: 0
  m_Name: Junk
  m_TagString: Untagged
  m_Icon: {fileID: 0}
  m_NavMeshLayer: 0
  m_StaticEditorFlags: 0
  m_IsActive: 1
--- !u!4 &1657671107
Transform:
  m_ObjectHideFlags: 0
  m_CorrespondingSourceObject: {fileID: 0}
  m_PrefabInstance: {fileID: 0}
  m_PrefabAsset: {fileID: 0}
  m_GameObject: {fileID: 1657671106}
  m_LocalRotation: {x: 0, y: 0, z: 0, w: 1}
  m_LocalPosition: {x: 0, y: 0, z: 0}
  m_LocalScale: {x: 1, y: 1, z: 1}
  m_Children:
  - {fileID: 1458774904}
  - {fileID: 1381984315}
  - {fileID: 283738427}
  m_Father: {fileID: 0}
  m_RootOrder: 4
  m_LocalEulerAnglesHint: {x: 0, y: 0, z: 0}
--- !u!1001 &1965397382
PrefabInstance:
  m_ObjectHideFlags: 0
  serializedVersion: 2
  m_Modification:
    m_TransformParent: {fileID: 653249756}
    m_Modifications:
    - target: {fileID: 400338, guid: b3a53a0efb7c50848b26f6eea91284bb, type: 3}
      propertyPath: m_RootOrder
      value: 0
      objectReference: {fileID: 0}
    - target: {fileID: 400338, guid: b3a53a0efb7c50848b26f6eea91284bb, type: 3}
      propertyPath: m_LocalPosition.x
      value: 0
      objectReference: {fileID: 0}
    - target: {fileID: 400338, guid: b3a53a0efb7c50848b26f6eea91284bb, type: 3}
      propertyPath: m_LocalPosition.y
      value: 0
      objectReference: {fileID: 0}
    - target: {fileID: 400338, guid: b3a53a0efb7c50848b26f6eea91284bb, type: 3}
      propertyPath: m_LocalPosition.z
      value: -8.75
      objectReference: {fileID: 0}
    - target: {fileID: 400338, guid: b3a53a0efb7c50848b26f6eea91284bb, type: 3}
      propertyPath: m_LocalRotation.w
      value: 1
      objectReference: {fileID: 0}
    - target: {fileID: 400338, guid: b3a53a0efb7c50848b26f6eea91284bb, type: 3}
      propertyPath: m_LocalRotation.x
      value: 0
      objectReference: {fileID: 0}
    - target: {fileID: 400338, guid: b3a53a0efb7c50848b26f6eea91284bb, type: 3}
      propertyPath: m_LocalRotation.y
      value: 0
      objectReference: {fileID: 0}
    - target: {fileID: 400338, guid: b3a53a0efb7c50848b26f6eea91284bb, type: 3}
      propertyPath: m_LocalRotation.z
      value: 0
      objectReference: {fileID: 0}
    - target: {fileID: 2332998, guid: b3a53a0efb7c50848b26f6eea91284bb, type: 3}
      propertyPath: m_Enabled
      value: 1
      objectReference: {fileID: 0}
    m_RemovedComponents: []
  m_SourcePrefab: {fileID: 100100000, guid: b3a53a0efb7c50848b26f6eea91284bb, type: 3}
--- !u!4 &1965397383 stripped
Transform:
  m_CorrespondingSourceObject: {fileID: 400338, guid: b3a53a0efb7c50848b26f6eea91284bb,
    type: 3}
  m_PrefabInstance: {fileID: 1965397382}
  m_PrefabAsset: {fileID: 0}
--- !u!1 &2046082255
GameObject:
  m_ObjectHideFlags: 0
  m_CorrespondingSourceObject: {fileID: 0}
  m_PrefabInstance: {fileID: 0}
  m_PrefabAsset: {fileID: 0}
  serializedVersion: 6
  m_Component:
  - component: {fileID: 2046082256}
  m_Layer: 0
  m_Name: Props
  m_TagString: Untagged
  m_Icon: {fileID: 0}
  m_NavMeshLayer: 0
  m_StaticEditorFlags: 0
  m_IsActive: 1
--- !u!4 &2046082256
Transform:
  m_ObjectHideFlags: 0
  m_CorrespondingSourceObject: {fileID: 0}
  m_PrefabInstance: {fileID: 0}
  m_PrefabAsset: {fileID: 0}
  m_GameObject: {fileID: 2046082255}
  m_LocalRotation: {x: 0, y: 0, z: 0, w: 1}
  m_LocalPosition: {x: 0, y: 0, z: 0}
  m_LocalScale: {x: 1, y: 1, z: 1}
  m_Children:
  - {fileID: 423303476}
  - {fileID: 552354082}
  - {fileID: 629293547}
  - {fileID: 580859030}
  - {fileID: 315295613}
  - {fileID: 885775589}
  m_Father: {fileID: 0}
  m_RootOrder: 2
  m_LocalEulerAnglesHint: {x: 0, y: 0, z: 0}
--- !u!1 &2107119709
GameObject:
  m_ObjectHideFlags: 0
  m_CorrespondingSourceObject: {fileID: 0}
  m_PrefabInstance: {fileID: 0}
  m_PrefabAsset: {fileID: 0}
  serializedVersion: 6
  m_Component:
  - component: {fileID: 2107119711}
  - component: {fileID: 2107119710}
  m_Layer: 0
  m_Name: Directional Light
  m_TagString: Untagged
  m_Icon: {fileID: 0}
  m_NavMeshLayer: 0
  m_StaticEditorFlags: 0
  m_IsActive: 1
--- !u!108 &2107119710
Light:
  m_ObjectHideFlags: 0
  m_CorrespondingSourceObject: {fileID: 0}
  m_PrefabInstance: {fileID: 0}
  m_PrefabAsset: {fileID: 0}
  m_GameObject: {fileID: 2107119709}
  m_Enabled: 1
  serializedVersion: 10
  m_Type: 1
  m_Shape: 0
  m_Color: {r: 1, g: 0.6764706, b: 0.6764706, a: 1}
  m_Intensity: 1
  m_Range: 10
  m_SpotAngle: 30
  m_InnerSpotAngle: 21.80208
  m_CookieSize: 10
  m_Shadows:
    m_Type: 2
    m_Resolution: -1
    m_CustomResolution: -1
    m_Strength: 1
    m_Bias: 0.005
    m_NormalBias: 0.05
    m_NearPlane: 0.2
    m_CullingMatrixOverride:
      e00: 1
      e01: 0
      e02: 0
      e03: 0
      e10: 0
      e11: 1
      e12: 0
      e13: 0
      e20: 0
      e21: 0
      e22: 1
      e23: 0
      e30: 0
      e31: 0
      e32: 0
      e33: 1
    m_UseCullingMatrixOverride: 0
  m_Cookie: {fileID: 0}
  m_DrawHalo: 0
  m_Flare: {fileID: 0}
  m_RenderMode: 0
  m_CullingMask:
    serializedVersion: 2
    m_Bits: 4294967295
  m_RenderingLayerMask: 1
  m_Lightmapping: 4
  m_LightShadowCasterMode: 0
  m_AreaSize: {x: 1, y: 1}
  m_BounceIntensity: 1
  m_ColorTemperature: 6570
  m_UseColorTemperature: 0
  m_BoundingSphereOverride: {x: 0, y: 0, z: 0, w: 0}
  m_UseBoundingSphereOverride: 0
  m_UseViewFrustumForShadowCasterCull: 1
  m_ShadowRadius: 0
  m_ShadowAngle: 0
--- !u!4 &2107119711
Transform:
  m_ObjectHideFlags: 0
  m_CorrespondingSourceObject: {fileID: 0}
  m_PrefabInstance: {fileID: 0}
  m_PrefabAsset: {fileID: 0}
  m_GameObject: {fileID: 2107119709}
  m_LocalRotation: {x: 0.20906462, y: -0.25268403, z: 0.056018706, w: 0.9430295}
  m_LocalPosition: {x: 0, y: 3, z: 0}
  m_LocalScale: {x: 1, y: 1, z: 1}
  m_Children: []
  m_Father: {fileID: 0}
  m_RootOrder: 1
  m_LocalEulerAnglesHint: {x: 25, y: -30, z: 0}
