%YAML 1.1
%TAG !u! tag:unity3d.com,2011:
--- !u!1045 &1
EditorBuildSettings:
  m_ObjectHideFlags: 0
  serializedVersion: 2
  m_Scenes:
  - enabled: 1
    path: Assets/Scenes/Intro.unity
    guid: 366550f39c3306f478f07e3fb669f698
  - enabled: 1
    path: Assets/Scenes/Tutorial.unity
    guid: 28920c5305731a24fabb310bb18e4bdc
  - enabled: 1
    path: Assets/Scenes/Level 1.unity
    guid: 384d043b0eabd7e4f91b2fc1ddf8b5da
  m_configObjects: {}
